%!PS-Adobe-3.0 EPSF-3.0
%%Creator: cairo 1.8.8 (http://cairographics.org)
%%CreationDate: Sun Dec 20 20:41:19 2009
%%Pages: 1
%%BoundingBox: 0 -1 437 200
%%DocumentData: Clean7Bit
%%LanguageLevel: 2
%%EndComments
%%BeginProlog
/cairo_eps_state save def
/dict_count countdictstack def
/op_count count 1 sub def
userdict begin
/q { gsave } bind def
/Q { grestore } bind def
/cm { 6 array astore concat } bind def
/w { setlinewidth } bind def
/J { setlinecap } bind def
/j { setlinejoin } bind def
/M { setmiterlimit } bind def
/d { setdash } bind def
/m { moveto } bind def
/l { lineto } bind def
/c { curveto } bind def
/h { closepath } bind def
/re { exch dup neg 3 1 roll 5 3 roll moveto 0 rlineto
      0 exch rlineto 0 rlineto closepath } bind def
/S { stroke } bind def
/f { fill } bind def
/f* { eofill } bind def
/B { fill stroke } bind def
/B* { eofill stroke } bind def
/n { newpath } bind def
/W { clip } bind def
/W* { eoclip } bind def
/BT { } bind def
/ET { } bind def
/pdfmark where { pop globaldict /?pdfmark /exec load put }
    { globaldict begin /?pdfmark /pop load def /pdfmark
    /cleartomark load def end } ifelse
/BDC { mark 3 1 roll /BDC pdfmark } bind def
/EMC { mark /EMC pdfmark } bind def
/cairo_store_point { /cairo_point_y exch def /cairo_point_x exch def } def
/Tj { show currentpoint cairo_store_point } bind def
/TJ {
  {
    dup
    type /stringtype eq
    { show } { -0.001 mul 0 cairo_font_matrix dtransform rmoveto } ifelse
  } forall
  currentpoint cairo_store_point
} bind def
/cairo_selectfont { cairo_font_matrix aload pop pop pop 0 0 6 array astore
    cairo_font exch selectfont cairo_point_x cairo_point_y moveto } bind def
/Tf { pop /cairo_font exch def /cairo_font_matrix where
      { pop cairo_selectfont } if } bind def
/Td { matrix translate cairo_font_matrix matrix concatmatrix dup
      /cairo_font_matrix exch def dup 4 get exch 5 get cairo_store_point
      /cairo_font where { pop cairo_selectfont } if } bind def
/Tm { 2 copy 8 2 roll 6 array astore /cairo_font_matrix exch def
      cairo_store_point /cairo_font where { pop cairo_selectfont } if } bind def
/g { setgray } bind def
/rg { setrgbcolor } bind def
/d1 { setcachedevice } bind def
%%EndProlog
%%Page: 1 1
%%BeginPageSetup
%%PageBoundingBox: 0 -1 437 200
%%EndPageSetup
q
Q q
0 199.798 m 436.062 199.798 l 436.062 -1.112 l 0 -1.112 l 0 199.798 l h
0 199.798 m W n
q 0 0 437 200 rectclip
[ 1 0 0 1 0 -0.201767 ] concat
  q
  0 0 437 200 rectclip
Q q
0.0862745 0.313726 0.588235 rg
431.148 248.859 m 3.832 248.859 l 3.832 248.926 l -45.898 248.926 l 
-45.898 0.203 l 60.48 0.203 l 294.836 0.203 248.863 199.129 431.148 
199.129 c 454.355 199.129 458.242 248.859 458.242 248.859 c 431.148 
248.859 l f
0.227451 0.388235 0.623529 rg
157.355 248.48 m 116.66 248.48 l 117 246.828 118.145 241.281 119.621 
234.461 c 121.422 226.285 123.695 216.305 125.652 208.98 c 126.914 
204.148 128.117 200.426 128.777 199.445 c 130.516 196.855 132.156 
194.297 133.703 191.867 c 140.555 180.91 145.48 167.078 147.535 154.387 
c 148.23 150.027 148.578 145.547 148.578 141.031 c 148.578 141.02 l 
148.578 141 l 148.578 123.82 143.621 105.98 133.895 92.371 c 124.168 
78.793 109.582 69.449 90.477 69.48 c 89.656 69.48 l 74.754 69.73 54.324 
79.773 43.176 87.73 c 30.426 96.883 16.789 104.996 3.566 113.332 c 
3.547 113.305 l -2.449 117 -14.703 119.684 -25.5 121.422 c -35.047 
122.957 -43.43 123.777 -45.488 123.969 c -45.488 109.348 l -43.586 
109.133 -34.766 108.086 -24.934 106.297 c -13.785 104.242 -1.375 
101.277 4.055 97.266 c 16.023 88.488 24.707 76.016 35.188 66.418 c 
55.945 47.457 92.051 30.609 123.449 30.609 c 123.539 30.609 l 124.707 
30.609 l 168.121 31.176 190.887 63.73 190.887 93.16 c 190.887 94.172 
190.887 95.184 190.824 96.16 c 191.266 96.191 l 191.266 96.191 l 
190.824 96.16 l 189.121 127.832 182.961 169.133 166.734 198.973 c 
166.703 198.973 l 166.703 199.004 l 160.074 212.617 157.66 244.5 
157.355 248.48 c f
1 g
-46.34 125.305 m -46.34 108.539 l -45.961 108.508 l -45.961 108.508 
-45.941 108.508 -45.898 108.5 c -45.898 124.004 l -45.93 124.008 
-45.949 124.012 -45.961 124.012 c -46.184 124.105 l -46.34 124.23 l 
-46.34 125.305 l 158.176 249.336 m 116.465 249.336 l 116.559 248.988 l 
116.559 248.988 116.566 248.945 116.582 248.859 c 158.211 248.859 l 
158.211 248.902 158.207 248.926 158.207 248.926 c 158.176 249.336 l f
0.223529 0.392157 0.654902 rg
148.578 141.02 m 148.574 123.812 143.617 105.977 133.895 92.371 c 
124.168 78.793 109.582 69.449 90.477 69.48 c 89.656 69.48 l 74.754 
69.73 54.324 79.773 43.176 87.73 c 43.43 88.109 l 43.43 88.109 l 43.176 
87.73 l 30.426 96.883 16.789 104.996 3.566 113.332 c 3.547 113.305 l 
-2.449 117 -14.703 119.684 -25.5 121.422 c -35.945 123.102 -45 123.922 
-45.898 124.004 c -45.898 108.5 l -45.496 108.457 -43.168 108.203 
-39.68 107.719 c -33.93 106.961 -25.059 105.602 -16.656 103.738 c 
-8.262 101.844 -0.305 99.414 3.52 96.57 c 15.328 87.887 24.012 75.477 
34.59 65.785 c 55.555 46.648 91.805 29.727 123.539 29.727 c 124.707 
29.727 l 168.629 30.293 191.805 63.32 191.773 93.16 c 191.773 94.172 
191.742 95.215 191.711 96.223 c 191.266 96.191 l 190.824 96.16 l 
190.887 95.184 190.887 94.172 190.887 93.16 c 190.887 63.73 168.121 
31.176 124.707 30.609 c 123.539 30.609 l 123.449 30.609 l 92.051 30.609 
55.945 47.457 35.188 66.418 c 24.707 76.016 16.023 88.488 4.055 97.266 
c -1.375 101.277 -13.785 104.242 -24.934 106.297 c -34.766 108.086 
-43.586 109.133 -45.488 109.348 c -45.488 123.969 l -43.43 123.777 
-35.047 122.957 -25.5 121.422 c -14.703 119.684 -2.449 117 3.547 
113.305 c 3.566 113.332 l 16.789 104.996 30.426 96.883 43.176 87.73 c 
54.324 79.773 74.754 69.73 89.656 69.48 c 90.477 69.48 l 109.582 69.449 
124.168 78.793 133.895 92.371 c 143.621 105.98 148.578 123.82 148.578 
141 c 148.578 141.02 l 167.113 199.191 m 167.492 199.383 l 167.113 
199.191 l 158.211 248.859 m 116.582 248.859 l 116.602 248.777 116.625 
248.648 116.66 248.48 c 157.355 248.48 l 157.66 244.5 160.074 212.617 
166.703 199.004 c 166.703 198.973 l 166.734 198.973 l 182.961 169.133 
189.121 127.832 190.824 96.16 c 191.266 96.191 l 191.711 96.223 l 
189.973 127.957 183.848 169.32 167.492 199.383 c 167.492 199.383 l 
164.016 206.453 161.68 218.863 160.227 229.473 c 159.504 234.809 
158.996 239.672 158.68 243.211 c 158.398 246.398 158.238 248.48 158.211 
248.859 c f
0.384314 0.482353 0.654902 rg
115.746 248.48 m 95.199 248.48 l 95.145 246.844 94.961 240.816 94.961 
233.453 c 94.961 223.57 95.309 211.316 96.73 204.34 c 97.203 202.004 
97.836 200.266 98.496 199.477 c 98.496 199.477 l 98.48 199.461 l 
101.066 196.465 104.156 193.438 108 190.227 c 117.379 182.395 121.707 
171.5 121.707 160.828 c 121.707 160.828 l 121.707 151.355 118.328 
142.07 112.012 135.094 c 105.719 128.172 96.508 123.57 84.914 123.57 c 
84.793 123.57 l 81.477 123.57 77.973 123.914 74.281 124.707 c 71.309 
125.367 68.531 125.621 65.879 125.621 c 53.344 125.621 43.523 119.684 
30.387 119.684 c 29.125 119.684 27.801 119.715 26.473 119.844 c 18.703 
120.57 10.844 123.82 3.582 128.148 c -0.336 130.453 -11.449 133.293 
-22.121 135.629 c -32.793 137.969 -43.059 139.828 -45.457 140.273 c 
-45.469 140.277 -45.477 140.277 -45.488 140.277 c -45.488 124.863 l 
-45.457 124.863 l -45.172 124.832 -44.762 124.77 -44.227 124.738 c 
-43.184 124.609 -41.668 124.484 -39.836 124.262 c -36.109 123.852 
-31.059 123.191 -25.625 122.336 c -14.734 120.57 -2.293 117.918 4.023 
114.062 c 17.254 105.727 30.895 97.613 43.68 88.457 c 43.68 88.457 l 
54.703 80.562 75.133 70.551 89.656 70.363 c 90.477 70.332 l 109.297 
70.332 123.57 79.488 133.168 92.875 c 142.762 106.293 147.691 123.973 
147.691 141.02 c 147.691 145.527 147.344 149.941 146.652 154.23 c 
144.629 166.797 139.734 180.562 132.945 191.426 c 131.43 193.824 
129.789 196.383 128.051 198.941 c 127.23 200.234 126.094 203.867 
124.801 208.762 c 123.504 213.652 122.055 219.715 120.695 225.652 c 
118.289 236.309 116.16 246.504 115.746 248.48 c f
0.490196 0.560784 0.694118 rg
115.746 248.48 m 115.746 248.48 l 116.16 246.504 118.289 236.309 
120.695 225.652 c 122.055 219.715 123.504 213.652 124.801 208.762 c 
126.094 203.867 127.23 200.234 128.051 198.941 c 129.789 196.383 131.43 
193.824 132.945 191.426 c 139.734 180.562 144.629 166.797 146.652 
154.23 c 147.344 149.941 147.691 145.527 147.691 141.02 c 147.691 
141.031 l 147.691 145.512 147.344 149.934 146.652 154.23 c 144.629 
166.797 139.734 180.562 132.945 191.426 c 131.43 193.824 129.789 
196.383 128.051 198.941 c 127.23 200.234 126.094 203.867 124.801 
208.762 c 123.504 213.652 122.055 219.715 120.695 225.652 c 118.289 
236.309 116.16 246.504 115.746 248.48 c f
1 g
-46.34 141.789 m -46.34 125.305 l -45.898 124.98 l -45.898 140.359 l 
-45.961 140.375 -46.008 140.387 -46.059 140.398 c -46.215 140.492 l 
-46.34 140.621 l -46.34 141.789 l 116.465 249.336 m 95.215 249.336 l 
95.215 248.926 l 95.215 248.922 95.215 248.898 95.211 248.859 c 115.672 
248.859 l 115.582 249.336 l 116.465 249.336 l f
0.490196 0.568627 0.752941 rg
116.66 248.48 m 116.66 248.48 l 117 246.828 118.145 241.281 119.621 
234.461 c 121.422 226.285 123.695 216.305 125.652 208.98 c 126.914 
204.148 128.117 200.426 128.777 199.445 c 130.516 196.855 132.156 
194.297 133.703 191.867 c 140.555 180.91 145.48 167.078 147.535 154.387 
c 148.23 150.035 148.578 145.559 148.578 141.02 c 148.578 141.031 l 
148.578 145.547 148.23 150.027 147.535 154.387 c 145.48 167.078 140.555 
180.91 133.703 191.867 c 132.156 194.297 130.516 196.855 128.777 
199.445 c 128.117 200.426 126.914 204.148 125.652 208.98 c 123.695 
216.305 121.422 226.285 119.621 234.461 c 118.145 241.281 117 246.828 
116.66 248.48 c f
1 g
-46.34 125.305 m -46.34 124.23 l -46.184 124.105 l -45.961 124.012 l 
-45.949 124.012 -45.93 124.008 -45.898 124.004 c -45.898 124.98 l 
-46.34 125.305 l 116.465 249.336 m 115.582 249.336 l 115.672 248.859 l 
116.582 248.859 l 116.566 248.945 116.559 248.988 116.559 248.988 c 
116.465 249.336 l f
0.490196 0.576471 0.780392 rg
-45.898 124.453 m -45.898 124.453 l -45.898 124.98 m -45.898 124.004 l 
-45 123.922 -35.945 123.102 -25.5 121.422 c -14.703 119.684 -2.449 117 
3.547 113.305 c 3.566 113.332 l 16.789 104.996 30.426 96.883 43.176 
87.73 c 43.43 88.109 l 43.68 88.457 l 30.895 97.613 17.254 105.727 
4.023 114.062 c -2.293 117.918 -14.734 120.57 -25.625 122.336 c -31.059 
123.191 -36.109 123.852 -39.836 124.262 c -41.668 124.484 -43.184 
124.609 -44.227 124.738 c -44.762 124.77 -45.172 124.832 -45.457 
124.863 c -45.734 124.863 l -45.898 124.98 l 116.582 248.859 m 115.672 
248.859 l 115.676 248.828 l 115.676 248.828 115.699 248.711 115.746 
248.48 c 115.746 248.48 l 116.16 246.504 118.289 236.309 120.695 
225.652 c 122.055 219.715 123.504 213.652 124.801 208.762 c 126.094 
203.867 127.23 200.234 128.051 198.941 c 129.789 196.383 131.43 193.824 
132.945 191.426 c 139.734 180.562 144.629 166.797 146.652 154.23 c 
147.344 149.934 147.691 145.512 147.691 141.031 c 147.691 141.02 l 
147.691 141 l 147.691 123.98 142.766 106.297 133.168 92.875 c 123.57 
79.488 109.297 70.332 90.477 70.332 c 89.656 70.363 l 75.133 70.551 
54.703 80.562 43.68 88.457 c 43.68 88.457 l 43.43 88.109 l 43.176 87.73 
l 54.324 79.773 74.754 69.73 89.656 69.48 c 90.477 69.48 l 109.582 
69.449 124.168 78.793 133.895 92.371 c 143.617 105.977 148.574 123.812 
148.578 141.02 c 148.578 145.559 148.23 150.035 147.535 154.387 c 
145.48 167.078 140.555 180.91 133.703 191.867 c 132.156 194.297 130.516 
196.855 128.777 199.445 c 128.117 200.426 126.914 204.148 125.652 
208.98 c 123.695 216.305 121.422 226.285 119.621 234.461 c 118.145 
241.281 117 246.828 116.66 248.48 c 116.66 248.48 l 116.625 248.648 
116.602 248.777 116.582 248.859 c f
0.384314 0.498039 0.729412 rg
121.707 160.828 m 121.707 151.355 118.328 142.07 112.012 135.094 c 
105.719 128.172 96.508 123.57 84.914 123.57 c 84.793 123.57 l 81.477 
123.57 77.973 123.914 74.281 124.707 c 71.309 125.367 68.531 125.621 
65.879 125.621 c 53.344 125.621 43.523 119.684 30.387 119.684 c 29.125 
119.684 27.801 119.715 26.473 119.844 c 18.703 120.57 10.844 123.82 
3.582 128.148 c 3.801 128.527 l 3.801 128.527 l 3.582 128.148 l -0.336 
130.453 -11.449 133.293 -22.121 135.629 c -32.793 137.969 -43.059 
139.828 -45.457 140.273 c -45.668 140.312 -45.801 140.34 -45.898 
140.359 c -45.898 124.98 l -45.734 124.863 l -45.457 124.863 l -45.172 
124.832 -44.762 124.77 -44.227 124.738 c -43.184 124.609 -41.668 
124.484 -39.836 124.262 c -36.109 123.852 -31.059 123.191 -25.625 
122.336 c -14.734 120.57 -2.293 117.918 4.023 114.062 c 17.254 105.727 
30.895 97.613 43.68 88.457 c 43.68 88.457 l 54.703 80.562 75.133 70.551 
89.656 70.363 c 90.477 70.332 l 109.297 70.332 123.57 79.488 133.168 
92.875 c 142.766 106.297 147.691 123.98 147.691 141 c 147.691 141.02 l 
147.691 123.973 142.762 106.293 133.168 92.875 c 123.57 79.488 109.297 
70.332 90.477 70.332 c 89.656 70.363 l 75.133 70.551 54.703 80.562 
43.68 88.457 c 43.68 88.457 l 30.895 97.613 17.254 105.727 4.023 
114.062 c -2.293 117.918 -14.734 120.57 -25.625 122.336 c -31.059 
123.191 -36.109 123.852 -39.836 124.262 c -41.668 124.484 -43.184 
124.609 -44.227 124.738 c -44.762 124.77 -45.172 124.832 -45.457 
124.863 c -45.488 124.863 l -45.488 140.277 l -45.477 140.277 -45.469 
140.277 -45.457 140.273 c -43.059 139.828 -32.793 137.969 -22.121 
135.629 c -11.449 133.293 -0.336 130.453 3.582 128.148 c 10.844 123.82 
18.703 120.57 26.473 119.844 c 27.801 119.715 29.125 119.684 30.387 
119.684 c 43.523 119.684 53.344 125.621 65.879 125.621 c 68.531 125.621 
71.309 125.367 74.281 124.707 c 77.973 123.914 81.477 123.57 84.793 
123.57 c 84.914 123.57 l 96.508 123.57 105.719 128.172 112.012 135.094 
c 118.328 142.07 121.707 151.355 121.707 160.828 c 121.707 160.828 l 
115.672 248.859 m 95.211 248.859 l 95.188 248.16 94.961 241.629 94.961 
233.453 c 94.961 233.453 l 94.961 240.816 95.145 246.844 95.199 248.48 
c 115.746 248.48 l 115.699 248.711 115.676 248.828 115.676 248.828 c 
115.672 248.859 l f
0.568627 0.607843 0.682353 rg
94.316 248.48 m 63.676 248.48 l 63.852 246.422 64.578 237.902 65.375 
228.273 c 66.32 217.254 67.363 204.812 67.867 199.223 c 68.027 197.52 
68.09 195.781 68.09 194.016 c 68.09 194.016 l 68.09 176.395 60.574 
156.816 46.051 146.934 c 37.113 140.84 29.062 137.461 21.105 137.461 c 
15.297 137.461 9.516 139.293 3.547 143.176 c -4.785 148.672 -28.531 
153.945 -39.836 156.188 c -42.586 156.719 -44.594 157.098 -45.484 
157.262 c -45.488 141.176 l -45.363 141.156 l -45.047 141.094 -44.605 
141 -44.035 140.902 c -42.867 140.684 -41.258 140.398 -39.234 140.02 c 
-35.258 139.262 -29.859 138.188 -24.207 136.988 c -12.84 134.523 -0.461 
131.527 4.023 128.906 c 4.023 128.906 l 11.223 124.609 18.957 121.422 
26.535 120.727 c 27.863 120.602 29.125 120.539 30.387 120.539 c 43.238 
120.539 53.027 126.473 65.879 126.504 c 68.594 126.504 71.438 126.223 
74.469 125.559 c 78.102 124.801 81.539 124.422 84.793 124.422 c 107.59 
124.422 120.82 142.324 120.82 160.828 c 120.82 171.281 116.59 181.891 
107.434 189.562 c 103.551 192.812 100.422 195.879 97.805 198.91 c 
96.949 199.949 96.383 201.75 95.875 204.148 c 95.371 206.52 95.023 
209.484 94.77 212.707 c 94.234 219.18 94.078 226.852 94.078 233.453 c 
94.078 233.453 l 94.078 240.793 94.266 246.828 94.316 248.48 c f
1 g
-45.457 248.926 m -46.34 248.926 l -46.34 141.789 l -45.898 141.402 l 
-45.898 157.34 l -45.957 157.348 -45.992 157.355 -45.992 157.355 c 
-46.34 157.418 l -46.34 172.73 l -45.898 172.625 l -45.898 248.926 l 
-45.457 248.926 l 95.215 249.336 m 63.605 249.336 l 63.637 248.957 l 
63.637 248.957 63.641 248.922 63.645 248.859 c 94.328 248.859 l 94.328 
248.895 94.328 248.918 94.328 248.926 c 94.328 249.336 l 95.215 249.336 
l f
0.564706 0.635294 0.815686 rg
68.09 194.016 m 68.09 176.395 60.574 156.816 46.051 146.934 c 37.113 
140.84 29.062 137.461 21.105 137.461 c 15.297 137.461 9.516 139.293 
3.547 143.176 c -4.785 148.672 -28.531 153.945 -39.836 156.188 c 
-43.184 156.836 -45.426 157.254 -45.898 157.34 c -45.898 141.402 l 
-45.684 141.215 l -45.363 141.156 l -45.047 141.094 -44.605 141 -44.035 
140.902 c -42.867 140.684 -41.258 140.398 -39.234 140.02 c -35.258 
139.262 -29.859 138.188 -24.207 136.988 c -12.84 134.523 -0.461 131.527 
4.023 128.906 c 4.023 128.906 l 11.223 124.609 18.957 121.422 26.535 
120.727 c 27.863 120.602 29.125 120.539 30.387 120.539 c 43.238 120.539 
53.027 126.473 65.879 126.504 c 68.594 126.504 71.438 126.223 74.469 
125.559 c 78.102 124.801 81.539 124.422 84.793 124.422 c 107.59 124.422 
120.82 142.324 120.82 160.828 c 120.82 160.828 l 120.82 142.324 107.59 
124.422 84.793 124.422 c 81.539 124.422 78.102 124.801 74.469 125.559 c 
71.438 126.223 68.594 126.504 65.879 126.504 c 53.027 126.473 43.238 
120.539 30.387 120.539 c 29.125 120.539 27.863 120.602 26.535 120.727 c 
18.957 121.422 11.223 124.609 4.023 128.906 c 4.023 128.906 l -0.461 
131.527 -12.84 134.523 -24.207 136.988 c -29.859 138.188 -35.258 
139.262 -39.234 140.02 c -41.258 140.398 -42.867 140.684 -44.035 
140.902 c -44.605 141 -45.047 141.094 -45.363 141.156 c -45.488 141.176 
l -45.484 157.262 l -44.594 157.098 -42.586 156.719 -39.836 156.188 c 
-28.531 153.945 -4.785 148.672 3.547 143.176 c 9.516 139.293 15.297 
137.461 21.105 137.461 c 29.062 137.461 37.113 140.84 46.051 146.934 c 
60.574 156.816 68.09 176.395 68.09 194.016 c 68.09 194.016 l 94.328 
248.859 m 63.645 248.859 l 63.652 248.781 63.664 248.652 63.676 248.48 
c 94.316 248.48 l 94.266 246.828 94.078 240.793 94.078 233.453 c 94.078 
233.453 l 94.078 241.59 94.309 248.137 94.328 248.859 c -45.457 248.926 
m -45.898 248.926 l -45.898 172.625 l -45.805 172.605 l -45.805 172.605 
-45.684 172.578 -45.457 172.523 c -45.457 248.926 l f
1 g
-46.34 141.789 m -46.34 140.621 l -46.215 140.492 l -46.059 140.398 l 
-46.008 140.387 -45.961 140.375 -45.898 140.359 c -45.898 141.402 l 
-46.34 141.789 l 95.215 249.336 m 94.328 249.336 l 94.328 248.926 l 
94.328 248.918 94.328 248.895 94.328 248.859 c 95.211 248.859 l 95.215 
248.898 95.215 248.922 95.215 248.926 c 95.215 249.336 l f
0.729412 0.760784 0.886275 rg
-45.898 140.809 m -45.898 140.809 l -45.898 141.402 m -45.898 140.359 l 
-45.801 140.34 -45.668 140.312 -45.457 140.273 c -43.059 139.828 
-32.793 137.969 -22.121 135.629 c -11.449 133.293 -0.336 130.453 3.582 
128.148 c 3.801 128.527 l 4.023 128.906 l -0.461 131.527 -12.84 134.523 
-24.207 136.988 c -29.859 138.188 -35.258 139.262 -39.234 140.02 c 
-41.258 140.398 -42.867 140.684 -44.035 140.902 c -44.605 141 -45.047 
141.094 -45.363 141.156 c -45.684 141.215 l -45.898 141.402 l 95.211 
248.859 m 94.328 248.859 l 94.309 248.137 94.078 241.59 94.078 233.453 
c 94.078 226.852 94.234 219.18 94.77 212.707 c 95.023 209.484 95.371 
206.52 95.875 204.148 c 96.383 201.75 96.949 199.949 97.805 198.91 c 
100.422 195.879 103.551 192.812 107.434 189.562 c 116.59 181.891 120.82 
171.281 120.82 160.828 c 120.82 160.828 l 120.82 142.324 107.59 124.422 
84.793 124.422 c 81.539 124.422 78.102 124.801 74.469 125.559 c 71.438 
126.223 68.594 126.504 65.879 126.504 c 53.027 126.473 43.238 120.539 
30.387 120.539 c 29.125 120.539 27.863 120.602 26.535 120.727 c 18.957 
121.422 11.223 124.609 4.023 128.906 c 4.023 128.906 l 3.801 128.527 l 
3.582 128.148 l 10.844 123.82 18.703 120.57 26.473 119.844 c 27.801 
119.715 29.125 119.684 30.387 119.684 c 43.523 119.684 53.344 125.621 
65.879 125.621 c 68.531 125.621 71.309 125.367 74.281 124.707 c 77.973 
123.914 81.477 123.57 84.793 123.57 c 84.914 123.57 l 96.508 123.57 
105.719 128.172 112.012 135.094 c 118.328 142.07 121.707 151.355 
121.707 160.828 c 121.707 171.5 117.379 182.395 108 190.227 c 104.156 
193.438 101.066 196.465 98.48 199.461 c 98.48 199.461 l 98.496 199.477 
l 97.836 200.266 97.203 202.004 96.73 204.34 c 95.309 211.316 94.961 
223.57 94.961 233.453 c 94.961 233.453 l 94.961 241.629 95.188 248.16 
95.211 248.859 c f
0.768627 0.756863 0.690196 rg
62.816 248.48 m 32.785 248.48 l 32.902 247.57 33.184 245.398 33.609 
242.453 c 34.176 238.473 34.938 233.074 35.883 227.422 c 37.746 216.117 
40.211 203.645 42.449 199.383 c 42.449 199.383 l 44.629 195.434 45.641 
190.793 45.641 185.992 c 45.668 170.934 35.504 154.355 18.766 153.691 c 
17.949 153.691 l 12.832 153.691 7.938 155.43 3.547 158.301 c 3.559 
158.316 l 1.598 159.457 -5.922 161.688 -14.449 163.953 c -23.039 
166.227 -32.668 168.594 -39.016 170.109 c -42.145 170.859 -44.461 
171.398 -45.457 171.629 c -45.457 158.137 l -43.578 157.801 -34.953 
156.195 -25.215 153.883 c -14.164 151.262 -1.754 147.723 4.023 143.902 
c 9.895 140.113 15.453 138.348 21.105 138.348 c 28.809 138.348 36.703 
141.629 45.578 147.66 c 59.754 157.293 67.238 176.617 67.207 194.016 c 
67.207 195.75 67.141 197.457 66.984 199.129 c 66.062 209.688 63.152 
244.477 62.816 248.48 c f
1 g
63.605 249.336 m 31.809 249.336 l 31.875 248.859 l 62.785 248.859 l 
62.785 248.859 l 62.723 249.336 l 63.605 249.336 l f
0.768627 0.796078 0.901961 rg
62.785 248.859 m 31.875 248.859 l 31.875 248.859 33.168 238.629 35.031 
227.262 c 36.895 215.926 39.293 203.52 41.66 198.973 c 42.039 199.191 l 
42.449 199.383 l 42.039 199.191 l 41.66 198.973 l 43.777 195.184 44.789 
190.668 44.789 185.992 c 44.789 171.281 34.809 155.176 18.738 154.574 c 
17.949 154.543 l 13.051 154.543 8.316 156.25 4.023 159.027 c 2.539 
159.914 -1.219 161.145 -6.176 162.566 c -19.93 166.531 -42.402 171.812 
-45.457 172.523 c -45.457 158.137 l -43.578 157.801 -34.953 156.195 
-25.215 153.883 c -14.164 151.262 -1.754 147.723 4.023 143.902 c 9.895 
140.113 15.453 138.348 21.105 138.348 c 28.809 138.348 36.703 141.629 
45.578 147.66 c 59.754 157.293 67.238 176.617 67.207 194.016 c 67.207 
194.016 l 67.238 176.617 59.754 157.293 45.578 147.66 c 36.703 141.629 
28.809 138.348 21.105 138.348 c 15.453 138.348 9.895 140.113 4.023 
143.902 c -1.754 147.723 -14.164 151.262 -25.215 153.883 c -34.953 
156.195 -43.578 157.801 -45.457 158.137 c -45.457 171.629 l -44.461 
171.398 -42.145 170.859 -39.016 170.109 c -32.668 168.594 -23.039 
166.227 -14.449 163.953 c -5.922 161.688 1.598 159.457 3.559 158.316 c 
3.547 158.301 l 7.938 155.43 12.832 153.691 17.949 153.691 c 18.766 
153.691 l 35.504 154.355 45.668 170.934 45.641 185.992 c 45.641 190.793 
44.629 195.434 42.449 199.383 c 42.449 199.383 l 42.039 199.191 l 
42.449 199.383 l 40.211 203.645 37.746 216.117 35.883 227.422 c 34.938 
233.074 34.176 238.473 33.609 242.453 c 33.184 245.398 32.902 247.57 
32.785 248.48 c 62.816 248.48 l 62.797 248.727 62.785 248.859 62.785 
248.859 c f
1 g
-46.34 172.73 m -46.34 157.418 l -45.992 157.355 l -45.992 157.355 
-45.957 157.348 -45.898 157.34 c -45.898 172.625 l -46.34 172.73 l 
63.605 249.336 m 62.723 249.336 l 62.785 248.859 l 63.645 248.859 l 
63.641 248.922 63.637 248.957 63.637 248.957 c 63.605 249.336 l f
0.905882 0.917647 0.960784 rg
63.645 248.859 m 62.785 248.859 l 62.785 248.859 62.797 248.727 62.816 
248.48 c 62.816 248.48 l 63.152 244.477 66.062 209.688 66.984 199.129 c 
67.141 197.457 67.207 195.75 67.207 194.016 c 67.207 194.016 l 67.238 
176.617 59.754 157.293 45.578 147.66 c 36.703 141.629 28.809 138.348 
21.105 138.348 c 15.453 138.348 9.895 140.113 4.023 143.902 c -1.754 
147.723 -14.164 151.262 -25.215 153.883 c -34.953 156.195 -43.578 
157.801 -45.457 158.137 c -45.457 172.523 l -45.684 172.578 -45.805 
172.605 -45.805 172.605 c -45.898 172.625 l -45.898 157.34 l -45.426 
157.254 -43.184 156.836 -39.836 156.188 c -28.531 153.945 -4.785 
148.672 3.547 143.176 c 9.516 139.293 15.297 137.461 21.105 137.461 c 
29.062 137.461 37.113 140.84 46.051 146.934 c 60.574 156.816 68.09 
176.395 68.09 194.016 c 68.09 195.781 68.027 197.52 67.867 199.223 c 
67.363 204.812 66.32 217.254 65.375 228.273 c 64.578 237.902 63.852 
246.422 63.676 248.48 c 63.676 248.48 l 63.664 248.652 63.652 248.781 
63.645 248.859 c f
0.768627 0.796078 0.901961 rg
42.449 199.383 m 42.449 199.383 l f
0.996078 0.937255 0.686275 rg
3.797 158.664 m 8.371 155.691 13.465 153.934 18.75 154.133 c 40.363 
154.965 50.969 183.07 42.055 199.184 c 37.445 207.996 32.301 248.91 
32.301 248.91 c -45.906 248.91 l -45.906 172.184 l -45.906 172.184 
-1.699 161.922 3.797 158.664 c f
1 g
3.797 158.664 m 3.559 158.293 l 7.953 155.438 12.848 153.68 17.945 
153.676 c 18.766 153.695 l 35.492 154.363 45.656 170.938 45.656 185.996 
c 45.656 190.785 44.629 195.434 42.438 199.395 c 42.055 199.184 l 
42.445 199.391 l 40.199 203.648 37.73 216.113 35.879 227.422 c 34.949 
233.082 34.164 238.465 33.609 242.441 c 33.055 246.41 32.738 248.957 
32.734 248.965 c 32.688 249.348 l -46.344 249.348 l -46.344 171.836 l 
-46.004 171.762 l -46 171.758 -43.242 171.117 -39.016 170.105 c -32.672 
168.59 -23.027 166.23 -14.457 163.949 c -5.906 161.684 1.648 159.441 
3.574 158.289 c 3.797 158.664 l 3.559 158.293 l 3.797 158.664 l 4.02 
159.043 l 2.539 159.914 -1.23 161.145 -6.164 162.57 c -20.938 166.836 
-45.805 172.613 -45.805 172.613 c -45.906 172.184 l -45.469 172.184 l 
-45.469 248.91 l -45.906 248.91 l -45.906 248.473 l 32.301 248.473 l 
32.301 248.91 l 31.863 248.855 l 31.863 248.852 33.152 238.617 35.016 
227.277 c 36.891 215.926 39.301 203.527 41.664 198.98 c 41.668 198.977 
l 41.672 198.973 l 43.777 195.168 44.777 190.66 44.777 185.996 c 44.777 
171.281 34.816 155.168 18.734 154.574 c 17.945 154.555 l 13.051 154.555 
8.324 156.246 4.039 159.031 c 4.031 159.039 l 4.02 159.043 l 3.797 
158.664 l f
Q q
0 200 m 436.062 200 l 436.062 -0.91 l 0 -0.91 l 0 200 l h
0 200 m W n
  Q
Q
Q q
Q
showpage
%%Trailer
count op_count sub {pop} repeat
countdictstack dict_count sub {end} repeat
cairo_eps_state restore
%%EOF
