%!PS-Adobe-3.0 EPSF-3.0
%%Creator: cairo 1.8.10 (http://cairographics.org)
%%CreationDate: Sat Apr  3 13:35:48 2010
%%Pages: 1
%%BoundingBox: 0 0 2560 201
%%DocumentData: Clean7Bit
%%LanguageLevel: 2
%%EndComments
%%BeginProlog
/cairo_eps_state save def
/dict_count countdictstack def
/op_count count 1 sub def
userdict begin
/q { gsave } bind def
/Q { grestore } bind def
/cm { 6 array astore concat } bind def
/w { setlinewidth } bind def
/J { setlinecap } bind def
/j { setlinejoin } bind def
/M { setmiterlimit } bind def
/d { setdash } bind def
/m { moveto } bind def
/l { lineto } bind def
/c { curveto } bind def
/h { closepath } bind def
/re { exch dup neg 3 1 roll 5 3 roll moveto 0 rlineto
      0 exch rlineto 0 rlineto closepath } bind def
/S { stroke } bind def
/f { fill } bind def
/f* { eofill } bind def
/B { fill stroke } bind def
/B* { eofill stroke } bind def
/n { newpath } bind def
/W { clip } bind def
/W* { eoclip } bind def
/BT { } bind def
/ET { } bind def
/pdfmark where { pop globaldict /?pdfmark /exec load put }
    { globaldict begin /?pdfmark /pop load def /pdfmark
    /cleartomark load def end } ifelse
/BDC { mark 3 1 roll /BDC pdfmark } bind def
/EMC { mark /EMC pdfmark } bind def
/cairo_store_point { /cairo_point_y exch def /cairo_point_x exch def } def
/Tj { show currentpoint cairo_store_point } bind def
/TJ {
  {
    dup
    type /stringtype eq
    { show } { -0.001 mul 0 cairo_font_matrix dtransform rmoveto } ifelse
  } forall
  currentpoint cairo_store_point
} bind def
/cairo_selectfont { cairo_font_matrix aload pop pop pop 0 0 6 array astore
    cairo_font exch selectfont cairo_point_x cairo_point_y moveto } bind def
/Tf { pop /cairo_font exch def /cairo_font_matrix where
      { pop cairo_selectfont } if } bind def
/Td { matrix translate cairo_font_matrix matrix concatmatrix dup
      /cairo_font_matrix exch def dup 4 get exch 5 get cairo_store_point
      /cairo_font where { pop cairo_selectfont } if } bind def
/Tm { 2 copy 8 2 roll 6 array astore /cairo_font_matrix exch def
      cairo_store_point /cairo_font where { pop cairo_selectfont } if } bind def
/g { setgray } bind def
/rg { setrgbcolor } bind def
/d1 { setcachedevice } bind def
%%EndProlog
%%Page: 1 1
%%BeginPageSetup
%%PageBoundingBox: 0 0 2560 201
%%EndPageSetup
q
Q q
0 200.966 m 436.062 200.966 l 436.062 0.056 l 0 0.056 l 0 200.966 l h
0 200.966 m W n
q 0 0 2563 201 rectclip
[ 1 0 0 1 0 -0.0338898 ] concat
  q
  0 0 2563 201 rectclip
Q q
0.0862745 0.313726 0.588235 rg
431.148 249.859 m 3.832 249.859 l 3.832 249.926 l -45.898 249.926 l 
-45.898 1.203 l 60.48 1.203 l 294.836 1.203 248.863 200.129 431.148 
200.129 c 454.355 200.129 458.242 249.859 458.242 249.859 c 431.148 
249.859 l f
0.227451 0.388235 0.623529 rg
157.355 249.48 m 116.66 249.48 l 117 247.828 118.145 242.281 119.621 
235.461 c 121.422 227.285 123.695 217.305 125.652 209.98 c 126.914 
205.148 128.117 201.426 128.777 200.445 c 130.516 197.855 132.156 
195.297 133.703 192.867 c 140.555 181.91 145.48 168.078 147.535 155.387 
c 148.23 151.027 148.578 146.547 148.578 142.031 c 148.578 142.02 l 
148.578 142 l 148.578 124.82 143.621 106.98 133.895 93.371 c 124.168 
79.793 109.582 70.449 90.477 70.48 c 89.656 70.48 l 74.754 70.73 54.324 
80.773 43.176 88.73 c 30.426 97.883 16.789 105.996 3.566 114.332 c 
3.547 114.305 l -2.449 118 -14.703 120.684 -25.5 122.422 c -35.047 
123.957 -43.43 124.777 -45.488 124.969 c -45.488 110.348 l -43.586 
110.133 -34.766 109.086 -24.934 107.297 c -13.785 105.242 -1.375 
102.277 4.055 98.266 c 16.023 89.488 24.707 77.016 35.188 67.418 c 
55.945 48.457 92.051 31.609 123.449 31.609 c 123.539 31.609 l 124.707 
31.609 l 168.121 32.176 190.887 64.73 190.887 94.16 c 190.887 95.172 
190.887 96.184 190.824 97.16 c 191.266 97.191 l 191.266 97.191 l 
190.824 97.16 l 189.121 128.832 182.961 170.133 166.734 199.973 c 
166.703 199.973 l 166.703 200.004 l 160.074 213.617 157.66 245.5 
157.355 249.48 c f
1 g
-46.34 126.305 m -46.34 109.539 l -45.961 109.508 l -45.961 109.508 
-45.941 109.508 -45.898 109.5 c -45.898 125.004 l -45.93 125.008 
-45.949 125.012 -45.961 125.012 c -46.184 125.105 l -46.34 125.23 l 
-46.34 126.305 l 158.176 250.336 m 116.465 250.336 l 116.559 249.988 l 
116.559 249.988 116.566 249.945 116.582 249.859 c 158.211 249.859 l 
158.211 249.902 158.207 249.926 158.207 249.926 c 158.176 250.336 l f
0.223529 0.392157 0.654902 rg
148.578 142.02 m 148.574 124.812 143.617 106.977 133.895 93.371 c 
124.168 79.793 109.582 70.449 90.477 70.48 c 89.656 70.48 l 74.754 
70.73 54.324 80.773 43.176 88.73 c 43.43 89.109 l 43.43 89.109 l 43.176 
88.73 l 30.426 97.883 16.789 105.996 3.566 114.332 c 3.547 114.305 l 
-2.449 118 -14.703 120.684 -25.5 122.422 c -35.945 124.102 -45 124.922 
-45.898 125.004 c -45.898 109.5 l -45.496 109.457 -43.168 109.203 
-39.68 108.719 c -33.93 107.961 -25.059 106.602 -16.656 104.738 c 
-8.262 102.844 -0.305 100.414 3.52 97.57 c 15.328 88.887 24.012 76.477 
34.59 66.785 c 55.555 47.648 91.805 30.727 123.539 30.727 c 124.707 
30.727 l 168.629 31.293 191.805 64.32 191.773 94.16 c 191.773 95.172 
191.742 96.215 191.711 97.223 c 191.266 97.191 l 190.824 97.16 l 
190.887 96.184 190.887 95.172 190.887 94.16 c 190.887 64.73 168.121 
32.176 124.707 31.609 c 123.539 31.609 l 123.449 31.609 l 92.051 31.609 
55.945 48.457 35.188 67.418 c 24.707 77.016 16.023 89.488 4.055 98.266 
c -1.375 102.277 -13.785 105.242 -24.934 107.297 c -34.766 109.086 
-43.586 110.133 -45.488 110.348 c -45.488 124.969 l -43.43 124.777 
-35.047 123.957 -25.5 122.422 c -14.703 120.684 -2.449 118 3.547 
114.305 c 3.566 114.332 l 16.789 105.996 30.426 97.883 43.176 88.73 c 
54.324 80.773 74.754 70.73 89.656 70.48 c 90.477 70.48 l 109.582 70.449 
124.168 79.793 133.895 93.371 c 143.621 106.98 148.578 124.82 148.578 
142 c 148.578 142.02 l 167.113 200.191 m 167.492 200.383 l 167.113 
200.191 l 158.211 249.859 m 116.582 249.859 l 116.602 249.777 116.625 
249.648 116.66 249.48 c 157.355 249.48 l 157.66 245.5 160.074 213.617 
166.703 200.004 c 166.703 199.973 l 166.734 199.973 l 182.961 170.133 
189.121 128.832 190.824 97.16 c 191.266 97.191 l 191.711 97.223 l 
189.973 128.957 183.848 170.32 167.492 200.383 c 167.492 200.383 l 
164.016 207.453 161.68 219.863 160.227 230.473 c 159.504 235.809 
158.996 240.672 158.68 244.211 c 158.398 247.398 158.238 249.48 158.211 
249.859 c f
0.384314 0.482353 0.654902 rg
115.746 249.48 m 95.199 249.48 l 95.145 247.844 94.961 241.816 94.961 
234.453 c 94.961 224.57 95.309 212.316 96.73 205.34 c 97.203 203.004 
97.836 201.266 98.496 200.477 c 98.496 200.477 l 98.48 200.461 l 
101.066 197.465 104.156 194.438 108 191.227 c 117.379 183.395 121.707 
172.5 121.707 161.828 c 121.707 161.828 l 121.707 152.355 118.328 
143.07 112.012 136.094 c 105.719 129.172 96.508 124.57 84.914 124.57 c 
84.793 124.57 l 81.477 124.57 77.973 124.914 74.281 125.707 c 71.309 
126.367 68.531 126.621 65.879 126.621 c 53.344 126.621 43.523 120.684 
30.387 120.684 c 29.125 120.684 27.801 120.715 26.473 120.844 c 18.703 
121.57 10.844 124.82 3.582 129.148 c -0.336 131.453 -11.449 134.293 
-22.121 136.629 c -32.793 138.969 -43.059 140.828 -45.457 141.273 c 
-45.469 141.277 -45.477 141.277 -45.488 141.277 c -45.488 125.863 l 
-45.457 125.863 l -45.172 125.832 -44.762 125.77 -44.227 125.738 c 
-43.184 125.609 -41.668 125.484 -39.836 125.262 c -36.109 124.852 
-31.059 124.191 -25.625 123.336 c -14.734 121.57 -2.293 118.918 4.023 
115.062 c 17.254 106.727 30.895 98.613 43.68 89.457 c 43.68 89.457 l 
54.703 81.562 75.133 71.551 89.656 71.363 c 90.477 71.332 l 109.297 
71.332 123.57 80.488 133.168 93.875 c 142.762 107.293 147.691 124.973 
147.691 142.02 c 147.691 146.527 147.344 150.941 146.652 155.23 c 
144.629 167.797 139.734 181.562 132.945 192.426 c 131.43 194.824 
129.789 197.383 128.051 199.941 c 127.23 201.234 126.094 204.867 
124.801 209.762 c 123.504 214.652 122.055 220.715 120.695 226.652 c 
118.289 237.309 116.16 247.504 115.746 249.48 c f
0.490196 0.560784 0.694118 rg
115.746 249.48 m 115.746 249.48 l 116.16 247.504 118.289 237.309 
120.695 226.652 c 122.055 220.715 123.504 214.652 124.801 209.762 c 
126.094 204.867 127.23 201.234 128.051 199.941 c 129.789 197.383 131.43 
194.824 132.945 192.426 c 139.734 181.562 144.629 167.797 146.652 
155.23 c 147.344 150.941 147.691 146.527 147.691 142.02 c 147.691 
142.031 l 147.691 146.512 147.344 150.934 146.652 155.23 c 144.629 
167.797 139.734 181.562 132.945 192.426 c 131.43 194.824 129.789 
197.383 128.051 199.941 c 127.23 201.234 126.094 204.867 124.801 
209.762 c 123.504 214.652 122.055 220.715 120.695 226.652 c 118.289 
237.309 116.16 247.504 115.746 249.48 c f
1 g
-46.34 142.789 m -46.34 126.305 l -45.898 125.98 l -45.898 141.359 l 
-45.961 141.375 -46.008 141.387 -46.059 141.398 c -46.215 141.492 l 
-46.34 141.621 l -46.34 142.789 l 116.465 250.336 m 95.215 250.336 l 
95.215 249.926 l 95.215 249.922 95.215 249.898 95.211 249.859 c 115.672 
249.859 l 115.582 250.336 l 116.465 250.336 l f
0.490196 0.568627 0.752941 rg
116.66 249.48 m 116.66 249.48 l 117 247.828 118.145 242.281 119.621 
235.461 c 121.422 227.285 123.695 217.305 125.652 209.98 c 126.914 
205.148 128.117 201.426 128.777 200.445 c 130.516 197.855 132.156 
195.297 133.703 192.867 c 140.555 181.91 145.48 168.078 147.535 155.387 
c 148.23 151.035 148.578 146.559 148.578 142.02 c 148.578 142.031 l 
148.578 146.547 148.23 151.027 147.535 155.387 c 145.48 168.078 140.555 
181.91 133.703 192.867 c 132.156 195.297 130.516 197.855 128.777 
200.445 c 128.117 201.426 126.914 205.148 125.652 209.98 c 123.695 
217.305 121.422 227.285 119.621 235.461 c 118.145 242.281 117 247.828 
116.66 249.48 c f
1 g
-46.34 126.305 m -46.34 125.23 l -46.184 125.105 l -45.961 125.012 l 
-45.949 125.012 -45.93 125.008 -45.898 125.004 c -45.898 125.98 l 
-46.34 126.305 l 116.465 250.336 m 115.582 250.336 l 115.672 249.859 l 
116.582 249.859 l 116.566 249.945 116.559 249.988 116.559 249.988 c 
116.465 250.336 l f
0.490196 0.576471 0.780392 rg
-45.898 125.453 m -45.898 125.453 l -45.898 125.98 m -45.898 125.004 l 
-45 124.922 -35.945 124.102 -25.5 122.422 c -14.703 120.684 -2.449 118 
3.547 114.305 c 3.566 114.332 l 16.789 105.996 30.426 97.883 43.176 
88.73 c 43.43 89.109 l 43.68 89.457 l 30.895 98.613 17.254 106.727 
4.023 115.062 c -2.293 118.918 -14.734 121.57 -25.625 123.336 c -31.059 
124.191 -36.109 124.852 -39.836 125.262 c -41.668 125.484 -43.184 
125.609 -44.227 125.738 c -44.762 125.77 -45.172 125.832 -45.457 
125.863 c -45.734 125.863 l -45.898 125.98 l 116.582 249.859 m 115.672 
249.859 l 115.676 249.828 l 115.676 249.828 115.699 249.711 115.746 
249.48 c 115.746 249.48 l 116.16 247.504 118.289 237.309 120.695 
226.652 c 122.055 220.715 123.504 214.652 124.801 209.762 c 126.094 
204.867 127.23 201.234 128.051 199.941 c 129.789 197.383 131.43 194.824 
132.945 192.426 c 139.734 181.562 144.629 167.797 146.652 155.23 c 
147.344 150.934 147.691 146.512 147.691 142.031 c 147.691 142.02 l 
147.691 142 l 147.691 124.98 142.766 107.297 133.168 93.875 c 123.57 
80.488 109.297 71.332 90.477 71.332 c 89.656 71.363 l 75.133 71.551 
54.703 81.562 43.68 89.457 c 43.68 89.457 l 43.43 89.109 l 43.176 88.73 
l 54.324 80.773 74.754 70.73 89.656 70.48 c 90.477 70.48 l 109.582 
70.449 124.168 79.793 133.895 93.371 c 143.617 106.977 148.574 124.812 
148.578 142.02 c 148.578 146.559 148.23 151.035 147.535 155.387 c 
145.48 168.078 140.555 181.91 133.703 192.867 c 132.156 195.297 130.516 
197.855 128.777 200.445 c 128.117 201.426 126.914 205.148 125.652 
209.98 c 123.695 217.305 121.422 227.285 119.621 235.461 c 118.145 
242.281 117 247.828 116.66 249.48 c 116.66 249.48 l 116.625 249.648 
116.602 249.777 116.582 249.859 c f
0.384314 0.498039 0.729412 rg
121.707 161.828 m 121.707 152.355 118.328 143.07 112.012 136.094 c 
105.719 129.172 96.508 124.57 84.914 124.57 c 84.793 124.57 l 81.477 
124.57 77.973 124.914 74.281 125.707 c 71.309 126.367 68.531 126.621 
65.879 126.621 c 53.344 126.621 43.523 120.684 30.387 120.684 c 29.125 
120.684 27.801 120.715 26.473 120.844 c 18.703 121.57 10.844 124.82 
3.582 129.148 c 3.801 129.527 l 3.801 129.527 l 3.582 129.148 l -0.336 
131.453 -11.449 134.293 -22.121 136.629 c -32.793 138.969 -43.059 
140.828 -45.457 141.273 c -45.668 141.312 -45.801 141.34 -45.898 
141.359 c -45.898 125.98 l -45.734 125.863 l -45.457 125.863 l -45.172 
125.832 -44.762 125.77 -44.227 125.738 c -43.184 125.609 -41.668 
125.484 -39.836 125.262 c -36.109 124.852 -31.059 124.191 -25.625 
123.336 c -14.734 121.57 -2.293 118.918 4.023 115.062 c 17.254 106.727 
30.895 98.613 43.68 89.457 c 43.68 89.457 l 54.703 81.562 75.133 71.551 
89.656 71.363 c 90.477 71.332 l 109.297 71.332 123.57 80.488 133.168 
93.875 c 142.766 107.297 147.691 124.98 147.691 142 c 147.691 142.02 l 
147.691 124.973 142.762 107.293 133.168 93.875 c 123.57 80.488 109.297 
71.332 90.477 71.332 c 89.656 71.363 l 75.133 71.551 54.703 81.562 
43.68 89.457 c 43.68 89.457 l 30.895 98.613 17.254 106.727 4.023 
115.062 c -2.293 118.918 -14.734 121.57 -25.625 123.336 c -31.059 
124.191 -36.109 124.852 -39.836 125.262 c -41.668 125.484 -43.184 
125.609 -44.227 125.738 c -44.762 125.77 -45.172 125.832 -45.457 
125.863 c -45.488 125.863 l -45.488 141.277 l -45.477 141.277 -45.469 
141.277 -45.457 141.273 c -43.059 140.828 -32.793 138.969 -22.121 
136.629 c -11.449 134.293 -0.336 131.453 3.582 129.148 c 10.844 124.82 
18.703 121.57 26.473 120.844 c 27.801 120.715 29.125 120.684 30.387 
120.684 c 43.523 120.684 53.344 126.621 65.879 126.621 c 68.531 126.621 
71.309 126.367 74.281 125.707 c 77.973 124.914 81.477 124.57 84.793 
124.57 c 84.914 124.57 l 96.508 124.57 105.719 129.172 112.012 136.094 
c 118.328 143.07 121.707 152.355 121.707 161.828 c 121.707 161.828 l 
115.672 249.859 m 95.211 249.859 l 95.188 249.16 94.961 242.629 94.961 
234.453 c 94.961 234.453 l 94.961 241.816 95.145 247.844 95.199 249.48 
c 115.746 249.48 l 115.699 249.711 115.676 249.828 115.676 249.828 c 
115.672 249.859 l f
0.568627 0.607843 0.682353 rg
94.316 249.48 m 63.676 249.48 l 63.852 247.422 64.578 238.902 65.375 
229.273 c 66.32 218.254 67.363 205.812 67.867 200.223 c 68.027 198.52 
68.09 196.781 68.09 195.016 c 68.09 195.016 l 68.09 177.395 60.574 
157.816 46.051 147.934 c 37.113 141.84 29.062 138.461 21.105 138.461 c 
15.297 138.461 9.516 140.293 3.547 144.176 c -4.785 149.672 -28.531 
154.945 -39.836 157.188 c -42.586 157.719 -44.594 158.098 -45.484 
158.262 c -45.488 142.176 l -45.363 142.156 l -45.047 142.094 -44.605 
142 -44.035 141.902 c -42.867 141.684 -41.258 141.398 -39.234 141.02 c 
-35.258 140.262 -29.859 139.188 -24.207 137.988 c -12.84 135.523 -0.461 
132.527 4.023 129.906 c 4.023 129.906 l 11.223 125.609 18.957 122.422 
26.535 121.727 c 27.863 121.602 29.125 121.539 30.387 121.539 c 43.238 
121.539 53.027 127.473 65.879 127.504 c 68.594 127.504 71.438 127.223 
74.469 126.559 c 78.102 125.801 81.539 125.422 84.793 125.422 c 107.59 
125.422 120.82 143.324 120.82 161.828 c 120.82 172.281 116.59 182.891 
107.434 190.562 c 103.551 193.812 100.422 196.879 97.805 199.91 c 
96.949 200.949 96.383 202.75 95.875 205.148 c 95.371 207.52 95.023 
210.484 94.77 213.707 c 94.234 220.18 94.078 227.852 94.078 234.453 c 
94.078 234.453 l 94.078 241.793 94.266 247.828 94.316 249.48 c f
1 g
-45.457 249.926 m -46.34 249.926 l -46.34 142.789 l -45.898 142.402 l 
-45.898 158.34 l -45.957 158.348 -45.992 158.355 -45.992 158.355 c 
-46.34 158.418 l -46.34 173.73 l -45.898 173.625 l -45.898 249.926 l 
-45.457 249.926 l 95.215 250.336 m 63.605 250.336 l 63.637 249.957 l 
63.637 249.957 63.641 249.922 63.645 249.859 c 94.328 249.859 l 94.328 
249.895 94.328 249.918 94.328 249.926 c 94.328 250.336 l 95.215 250.336 
l f
0.564706 0.635294 0.815686 rg
68.09 195.016 m 68.09 177.395 60.574 157.816 46.051 147.934 c 37.113 
141.84 29.062 138.461 21.105 138.461 c 15.297 138.461 9.516 140.293 
3.547 144.176 c -4.785 149.672 -28.531 154.945 -39.836 157.188 c 
-43.184 157.836 -45.426 158.254 -45.898 158.34 c -45.898 142.402 l 
-45.684 142.215 l -45.363 142.156 l -45.047 142.094 -44.605 142 -44.035 
141.902 c -42.867 141.684 -41.258 141.398 -39.234 141.02 c -35.258 
140.262 -29.859 139.188 -24.207 137.988 c -12.84 135.523 -0.461 132.527 
4.023 129.906 c 4.023 129.906 l 11.223 125.609 18.957 122.422 26.535 
121.727 c 27.863 121.602 29.125 121.539 30.387 121.539 c 43.238 121.539 
53.027 127.473 65.879 127.504 c 68.594 127.504 71.438 127.223 74.469 
126.559 c 78.102 125.801 81.539 125.422 84.793 125.422 c 107.59 125.422 
120.82 143.324 120.82 161.828 c 120.82 161.828 l 120.82 143.324 107.59 
125.422 84.793 125.422 c 81.539 125.422 78.102 125.801 74.469 126.559 c 
71.438 127.223 68.594 127.504 65.879 127.504 c 53.027 127.473 43.238 
121.539 30.387 121.539 c 29.125 121.539 27.863 121.602 26.535 121.727 c 
18.957 122.422 11.223 125.609 4.023 129.906 c 4.023 129.906 l -0.461 
132.527 -12.84 135.523 -24.207 137.988 c -29.859 139.188 -35.258 
140.262 -39.234 141.02 c -41.258 141.398 -42.867 141.684 -44.035 
141.902 c -44.605 142 -45.047 142.094 -45.363 142.156 c -45.488 142.176 
l -45.484 158.262 l -44.594 158.098 -42.586 157.719 -39.836 157.188 c 
-28.531 154.945 -4.785 149.672 3.547 144.176 c 9.516 140.293 15.297 
138.461 21.105 138.461 c 29.062 138.461 37.113 141.84 46.051 147.934 c 
60.574 157.816 68.09 177.395 68.09 195.016 c 68.09 195.016 l 94.328 
249.859 m 63.645 249.859 l 63.652 249.781 63.664 249.652 63.676 249.48 
c 94.316 249.48 l 94.266 247.828 94.078 241.793 94.078 234.453 c 94.078 
234.453 l 94.078 242.59 94.309 249.137 94.328 249.859 c -45.457 249.926 
m -45.898 249.926 l -45.898 173.625 l -45.805 173.605 l -45.805 173.605 
-45.684 173.578 -45.457 173.523 c -45.457 249.926 l f
1 g
-46.34 142.789 m -46.34 141.621 l -46.215 141.492 l -46.059 141.398 l 
-46.008 141.387 -45.961 141.375 -45.898 141.359 c -45.898 142.402 l 
-46.34 142.789 l 95.215 250.336 m 94.328 250.336 l 94.328 249.926 l 
94.328 249.918 94.328 249.895 94.328 249.859 c 95.211 249.859 l 95.215 
249.898 95.215 249.922 95.215 249.926 c 95.215 250.336 l f
0.729412 0.760784 0.886275 rg
-45.898 141.809 m -45.898 141.809 l -45.898 142.402 m -45.898 141.359 l 
-45.801 141.34 -45.668 141.312 -45.457 141.273 c -43.059 140.828 
-32.793 138.969 -22.121 136.629 c -11.449 134.293 -0.336 131.453 3.582 
129.148 c 3.801 129.527 l 4.023 129.906 l -0.461 132.527 -12.84 135.523 
-24.207 137.988 c -29.859 139.188 -35.258 140.262 -39.234 141.02 c 
-41.258 141.398 -42.867 141.684 -44.035 141.902 c -44.605 142 -45.047 
142.094 -45.363 142.156 c -45.684 142.215 l -45.898 142.402 l 95.211 
249.859 m 94.328 249.859 l 94.309 249.137 94.078 242.59 94.078 234.453 
c 94.078 227.852 94.234 220.18 94.77 213.707 c 95.023 210.484 95.371 
207.52 95.875 205.148 c 96.383 202.75 96.949 200.949 97.805 199.91 c 
100.422 196.879 103.551 193.812 107.434 190.562 c 116.59 182.891 120.82 
172.281 120.82 161.828 c 120.82 161.828 l 120.82 143.324 107.59 125.422 
84.793 125.422 c 81.539 125.422 78.102 125.801 74.469 126.559 c 71.438 
127.223 68.594 127.504 65.879 127.504 c 53.027 127.473 43.238 121.539 
30.387 121.539 c 29.125 121.539 27.863 121.602 26.535 121.727 c 18.957 
122.422 11.223 125.609 4.023 129.906 c 4.023 129.906 l 3.801 129.527 l 
3.582 129.148 l 10.844 124.82 18.703 121.57 26.473 120.844 c 27.801 
120.715 29.125 120.684 30.387 120.684 c 43.523 120.684 53.344 126.621 
65.879 126.621 c 68.531 126.621 71.309 126.367 74.281 125.707 c 77.973 
124.914 81.477 124.57 84.793 124.57 c 84.914 124.57 l 96.508 124.57 
105.719 129.172 112.012 136.094 c 118.328 143.07 121.707 152.355 
121.707 161.828 c 121.707 172.5 117.379 183.395 108 191.227 c 104.156 
194.438 101.066 197.465 98.48 200.461 c 98.48 200.461 l 98.496 200.477 
l 97.836 201.266 97.203 203.004 96.73 205.34 c 95.309 212.316 94.961 
224.57 94.961 234.453 c 94.961 234.453 l 94.961 242.629 95.188 249.16 
95.211 249.859 c f
0.768627 0.756863 0.690196 rg
62.816 249.48 m 32.785 249.48 l 32.902 248.57 33.184 246.398 33.609 
243.453 c 34.176 239.473 34.938 234.074 35.883 228.422 c 37.746 217.117 
40.211 204.645 42.449 200.383 c 42.449 200.383 l 44.629 196.434 45.641 
191.793 45.641 186.992 c 45.668 171.934 35.504 155.355 18.766 154.691 c 
17.949 154.691 l 12.832 154.691 7.938 156.43 3.547 159.301 c 3.559 
159.316 l 1.598 160.457 -5.922 162.688 -14.449 164.953 c -23.039 
167.227 -32.668 169.594 -39.016 171.109 c -42.145 171.859 -44.461 
172.398 -45.457 172.629 c -45.457 159.137 l -43.578 158.801 -34.953 
157.195 -25.215 154.883 c -14.164 152.262 -1.754 148.723 4.023 144.902 
c 9.895 141.113 15.453 139.348 21.105 139.348 c 28.809 139.348 36.703 
142.629 45.578 148.66 c 59.754 158.293 67.238 177.617 67.207 195.016 c 
67.207 196.75 67.141 198.457 66.984 200.129 c 66.062 210.688 63.152 
245.477 62.816 249.48 c f
1 g
63.605 250.336 m 31.809 250.336 l 31.875 249.859 l 62.785 249.859 l 
62.785 249.859 l 62.723 250.336 l 63.605 250.336 l f
0.768627 0.796078 0.901961 rg
62.785 249.859 m 31.875 249.859 l 31.875 249.859 33.168 239.629 35.031 
228.262 c 36.895 216.926 39.293 204.52 41.66 199.973 c 42.039 200.191 l 
42.449 200.383 l 42.039 200.191 l 41.66 199.973 l 43.777 196.184 44.789 
191.668 44.789 186.992 c 44.789 172.281 34.809 156.176 18.738 155.574 c 
17.949 155.543 l 13.051 155.543 8.316 157.25 4.023 160.027 c 2.539 
160.914 -1.219 162.145 -6.176 163.566 c -19.93 167.531 -42.402 172.812 
-45.457 173.523 c -45.457 159.137 l -43.578 158.801 -34.953 157.195 
-25.215 154.883 c -14.164 152.262 -1.754 148.723 4.023 144.902 c 9.895 
141.113 15.453 139.348 21.105 139.348 c 28.809 139.348 36.703 142.629 
45.578 148.66 c 59.754 158.293 67.238 177.617 67.207 195.016 c 67.207 
195.016 l 67.238 177.617 59.754 158.293 45.578 148.66 c 36.703 142.629 
28.809 139.348 21.105 139.348 c 15.453 139.348 9.895 141.113 4.023 
144.902 c -1.754 148.723 -14.164 152.262 -25.215 154.883 c -34.953 
157.195 -43.578 158.801 -45.457 159.137 c -45.457 172.629 l -44.461 
172.398 -42.145 171.859 -39.016 171.109 c -32.668 169.594 -23.039 
167.227 -14.449 164.953 c -5.922 162.688 1.598 160.457 3.559 159.316 c 
3.547 159.301 l 7.938 156.43 12.832 154.691 17.949 154.691 c 18.766 
154.691 l 35.504 155.355 45.668 171.934 45.641 186.992 c 45.641 191.793 
44.629 196.434 42.449 200.383 c 42.449 200.383 l 42.039 200.191 l 
42.449 200.383 l 40.211 204.645 37.746 217.117 35.883 228.422 c 34.938 
234.074 34.176 239.473 33.609 243.453 c 33.184 246.398 32.902 248.57 
32.785 249.48 c 62.816 249.48 l 62.797 249.727 62.785 249.859 62.785 
249.859 c f
1 g
-46.34 173.73 m -46.34 158.418 l -45.992 158.355 l -45.992 158.355 
-45.957 158.348 -45.898 158.34 c -45.898 173.625 l -46.34 173.73 l 
63.605 250.336 m 62.723 250.336 l 62.785 249.859 l 63.645 249.859 l 
63.641 249.922 63.637 249.957 63.637 249.957 c 63.605 250.336 l f
0.905882 0.917647 0.960784 rg
63.645 249.859 m 62.785 249.859 l 62.785 249.859 62.797 249.727 62.816 
249.48 c 62.816 249.48 l 63.152 245.477 66.062 210.688 66.984 200.129 c 
67.141 198.457 67.207 196.75 67.207 195.016 c 67.207 195.016 l 67.238 
177.617 59.754 158.293 45.578 148.66 c 36.703 142.629 28.809 139.348 
21.105 139.348 c 15.453 139.348 9.895 141.113 4.023 144.902 c -1.754 
148.723 -14.164 152.262 -25.215 154.883 c -34.953 157.195 -43.578 
158.801 -45.457 159.137 c -45.457 173.523 l -45.684 173.578 -45.805 
173.605 -45.805 173.605 c -45.898 173.625 l -45.898 158.34 l -45.426 
158.254 -43.184 157.836 -39.836 157.188 c -28.531 154.945 -4.785 
149.672 3.547 144.176 c 9.516 140.293 15.297 138.461 21.105 138.461 c 
29.062 138.461 37.113 141.84 46.051 147.934 c 60.574 157.816 68.09 
177.395 68.09 195.016 c 68.09 196.781 68.027 198.52 67.867 200.223 c 
67.363 205.812 66.32 218.254 65.375 229.273 c 64.578 238.902 63.852 
247.422 63.676 249.48 c 63.676 249.48 l 63.664 249.652 63.652 249.781 
63.645 249.859 c f
0.768627 0.796078 0.901961 rg
42.449 200.383 m 42.449 200.383 l f
0.996078 0.937255 0.686275 rg
3.797 159.664 m 8.371 156.691 13.465 154.934 18.75 155.133 c 40.363 
155.965 50.969 184.07 42.055 200.184 c 37.445 208.996 32.301 249.91 
32.301 249.91 c -45.906 249.91 l -45.906 173.184 l -45.906 173.184 
-1.699 162.922 3.797 159.664 c f
1 g
3.797 159.664 m 3.559 159.293 l 7.953 156.438 12.848 154.68 17.945 
154.676 c 18.766 154.695 l 35.492 155.363 45.656 171.938 45.656 186.996 
c 45.656 191.785 44.629 196.434 42.438 200.395 c 42.055 200.184 l 
42.445 200.391 l 40.199 204.648 37.73 217.113 35.879 228.422 c 34.949 
234.082 34.164 239.465 33.609 243.441 c 33.055 247.41 32.738 249.957 
32.734 249.965 c 32.688 250.348 l -46.344 250.348 l -46.344 172.836 l 
-46.004 172.762 l -46 172.758 -43.242 172.117 -39.016 171.105 c -32.672 
169.59 -23.027 167.23 -14.457 164.949 c -5.906 162.684 1.648 160.441 
3.574 159.289 c 3.797 159.664 l 3.559 159.293 l 3.797 159.664 l 4.02 
160.043 l 2.539 160.914 -1.23 162.145 -6.164 163.57 c -20.938 167.836 
-45.805 173.613 -45.805 173.613 c -45.906 173.184 l -45.469 173.184 l 
-45.469 249.91 l -45.906 249.91 l -45.906 249.473 l 32.301 249.473 l 
32.301 249.91 l 31.863 249.855 l 31.863 249.852 33.152 239.617 35.016 
228.277 c 36.891 216.926 39.301 204.527 41.664 199.98 c 41.668 199.977 
l 41.672 199.973 l 43.777 196.168 44.777 191.66 44.777 186.996 c 44.777 
172.281 34.816 156.168 18.734 155.574 c 17.945 155.555 l 13.051 155.555 
8.324 157.246 4.039 160.031 c 4.031 160.039 l 4.02 160.043 l 3.797 
159.664 l f
Q q
0 201 m 436.062 201 l 436.062 0.09 l 0 0.09 l 0 201 l h
0 201 m W n
  Q
Q
Q q
0.360784 g
4.0016 w
0 J
0 j
[] 0.0 d
4 M q 1 0 0 -1 0 200.96611 cm
500 198.965 m 2560 198.965 l S Q
Q
showpage
%%Trailer
count op_count sub {pop} repeat
countdictstack dict_count sub {end} repeat
cairo_eps_state restore
%%EOF
