<?xml version="1.0" encoding="UTF-8" standalone="no"?>
<svg
   xmlns:dc="http://purl.org/dc/elements/1.1/"
   xmlns:cc="http://creativecommons.org/ns#"
   xmlns:rdf="http://www.w3.org/1999/02/22-rdf-syntax-ns#"
   xmlns:svg="http://www.w3.org/2000/svg"
   xmlns="http://www.w3.org/2000/svg"
   xmlns:sodipodi="http://sodipodi.sourceforge.net/DTD/sodipodi-0.dtd"
   xmlns:inkscape="http://www.inkscape.org/namespaces/inkscape"
   width="360"
   height="360"
   version="1.1"
   id="svg79"
   sodipodi:docname="coords_spheriques.svg"
   inkscape:version="1.0.2 (e86c870879, 2021-01-15)">
  <metadata
     id="metadata85">
    <rdf:RDF>
      <cc:Work
         rdf:about="">
        <dc:format>image/svg+xml</dc:format>
        <dc:type
           rdf:resource="http://purl.org/dc/dcmitype/StillImage" />
      </cc:Work>
    </rdf:RDF>
  </metadata>
  <defs
     id="defs83" />
  <sodipodi:namedview
     pagecolor="#ffffff"
     bordercolor="#666666"
     borderopacity="1"
     objecttolerance="10"
     gridtolerance="10"
     guidetolerance="10"
     inkscape:pageopacity="0"
     inkscape:pageshadow="2"
     inkscape:window-width="2560"
     inkscape:window-height="1414"
     id="namedview81"
     showgrid="false"
     inkscape:zoom="1.9861111"
     inkscape:cx="180"
     inkscape:cy="180"
     inkscape:window-x="1920"
     inkscape:window-y="0"
     inkscape:window-maximized="1"
     inkscape:current-layer="svg79" />
  <path
     d="m 16.5,195.5 a 143,-62 0 1 1 286,0"
     style="fill:none;stroke:#808080;stroke-width:1;stroke-dasharray:6, 6"
     id="path2" />
  <path
     d="M 127.332,56.165081 A 143,60 77 1 0 191.668,334.83492"
     style="fill:none;stroke:#808080;stroke-width:1;stroke-dasharray:6, 6"
     id="path4" />
  <path
     d="M 247.88835,107.11165 27.978139,327.02186"
     style="fill:none;stroke:#000000;stroke-width:1"
     id="path6" />
  <path
     d="m 29.745906,325.25409 -2.474874,-3.18198 -3.535534,6.36396 -4.24264,7.07107 7.071067,-4.24264 6.363961,-3.53553 z"
     style="fill:#000000;stroke:none"
     id="path8" />
  <path
     d="M 7.1450208,166.98754 344.29185,230.08285"
     style="fill:none;stroke:#000000;stroke-width:1"
     id="path10" />
  <path
     d="m 341.83451,229.62297 -1.22727,3.83977 7.24845,-0.67821 8.23138,-0.49426 -7.49558,-3.43749 -6.51264,-3.25353 z"
     style="fill:#000000;stroke:none"
     id="path12" />
  <path
     d="M 159.5,358.5 V 18.5"
     style="fill:none;stroke:#000000;stroke-width:1"
     id="path14" />
  <path
     d="m 159.5,21 4,0.5 -2,-7 -2,-8 -2,8 -2,7 z"
     style="fill:#000000;stroke:none"
     id="path16" />
  <circle
     cx="159.5"
     cy="-195.5"
     r="143"
     style="fill:none;stroke:#000000;stroke-width:2"
     id="circle18"
     transform="scale(1,-1)" />
  <path
     d="M 191.668,334.83492 A 143,60 77 1 0 127.332,56.165081"
     style="fill:none;stroke:#000000;stroke-width:1"
     id="path20" />
  <path
     d="m 16.5,195.5 a 143,-62 0 1 0 286,0"
     style="fill:none;stroke:#000000;stroke-width:1"
     id="path22" />
  <path
     d="m 159.5,195.5 -56.88,56.88 a 143,-62 0 0 0 123.61,-2.04 z"
     style="opacity:0.2;fill:#204a87;stroke:none"
     id="path24" />
  <path
     d="m 159.5,195.5 66.72546,54.83547 A 143,60 77 0 0 197.49954,121.33102 Z"
     style="opacity:0.3;fill:#f57900;stroke:none"
     id="path26" />
  <path
     d="m 159.5,195.5 38,-74.17"
     style="fill:none;stroke:#4e9a06;stroke-width:2"
     id="path28" />
  <path
     d="m 197.5,121.33 -7.21292,7.54809 5.34603,2.72395 z"
     style="fill:#4e9a06;stroke:#4e9a06;stroke-width:2"
     id="path30" />
  <path
     d="M 226.22546,250.33547 A 143,60 77 0 0 197.49954,121.33102"
     style="fill:none;stroke:#f57900;stroke-width:2"
     id="path32" />
  <path
     d="m 197.5,121.33 0.96451,10.39566 5.56311,-2.24764 z"
     style="fill:#f57900;stroke:#f57900;stroke-width:2"
     id="path34" />
  <path
     d="M 102.62,252.38 A 143,-62 0 0 0 221.5,251.37"
     style="fill:none;stroke:#204a87;stroke-width:2"
     id="path36" />
  <path
     d="m 226.23,250.34 -10.3887,-1.03679 1.14486,5.88976 z"
     style="fill:#204a87;stroke:#204a87;stroke-width:2"
     id="path38" />
  <circle
     cx="197.5"
     cy="-121.33"
     r="4"
     style="fill:#5c3566;stroke:none"
     id="circle40"
     transform="scale(1,-1)" />
  <circle
     cx="159.5"
     cy="-195.5"
     r="2"
     style="fill:#000000;stroke:none"
     id="circle42"
     transform="scale(1,-1)" />
  <text
     x="165.5"
     y="151.5"
     xml:space="preserve"
     style="font-style:italic;font-variant:normal;font-weight:normal;font-stretch:normal;font-size:28px;line-height:125%;font-family:'DejaVu Serif';-inkscape-font-specification:'DejaVu Serif Italic';text-align:start;writing-mode:lr-tb;text-anchor:start;fill:#000000;stroke:none"
     id="text46"><tspan
   x="165.5"
   y="151.5"
   id="tspan44">ρ</tspan>    </text>
  <text
     x="223.5"
     y="185.5"
     xml:space="preserve"
     style="font-style:italic;font-variant:normal;font-weight:normal;font-stretch:normal;font-size:28px;line-height:125%;font-family:'DejaVu Serif';-inkscape-font-specification:'DejaVu Serif, Italic';text-align:start;writing-mode:lr-tb;text-anchor:start;fill:#000000;stroke:none;font-variant-ligatures:normal;font-variant-caps:normal;font-variant-numeric:normal;font-variant-east-asian:normal;"
     id="text50"><tspan
       sodipodi:role="line"
       id="tspan948">λ</tspan></text>
  <text
     x="137.5"
     y="285.5"
     xml:space="preserve"
     style="font-style:italic;font-variant:normal;font-weight:normal;font-stretch:normal;font-size:28px;line-height:125%;font-family:'DejaVu Serif';-inkscape-font-specification:'DejaVu Serif Italic';text-align:start;writing-mode:lr-tb;text-anchor:start;fill:#000000;stroke:none"
     id="text54"><tspan
   x="137.5"
   y="285.5"
   id="tspan52">θ</tspan>    </text>
  <text
     x="204.5"
     y="117.5"
     xml:space="preserve"
     style="font-style:italic;font-variant:normal;font-weight:normal;font-stretch:normal;font-size:28px;line-height:125%;font-family:'DejaVu Serif';-inkscape-font-specification:'DejaVu Serif Italic';text-align:start;writing-mode:lr-tb;text-anchor:start;fill:#000000;stroke:none"
     id="text58"><tspan
   x="204.5"
   y="117.5"
   id="tspan56">P</tspan>    </text>
  <g
     transform="translate(32.5,349.5)"
     id="g64">
    <text
       x="0"
       y="0"
       xml:space="preserve"
       style="font-style:italic;font-variant:normal;font-weight:normal;font-stretch:normal;font-size:32px;font-family:'DejaVu Serif';-inkscape-font-specification:'DejaVu Serif Italic';text-align:start;writing-mode:lr-tb;text-anchor:start;fill:#000000;stroke:none"
       id="text62"><tspan
   x="0"
   y="0"
   id="tspan60">x</tspan>      </text>
  </g>
  <g
     transform="translate(326.5,260.5)"
     id="g70">
    <text
       x="0"
       y="0"
       xml:space="preserve"
       style="font-style:italic;font-variant:normal;font-weight:normal;font-stretch:normal;font-size:32px;font-family:'DejaVu Serif';-inkscape-font-specification:'DejaVu Serif Italic';text-align:start;writing-mode:lr-tb;text-anchor:start;fill:#000000;stroke:none"
       id="text68"><tspan
   x="0"
   y="0"
   id="tspan66">y</tspan>      </text>
  </g>
  <g
     transform="translate(169.5,25.5)"
     id="g76">
    <text
       x="0"
       y="0"
       xml:space="preserve"
       style="font-style:italic;font-variant:normal;font-weight:normal;font-stretch:normal;font-size:32px;font-family:'DejaVu Serif';-inkscape-font-specification:'DejaVu Serif Italic';text-align:start;writing-mode:lr-tb;text-anchor:start;fill:#000000;stroke:none"
       id="text74"><tspan
   x="0"
   y="0"
   id="tspan72">z</tspan>      </text>
  </g>
</svg>
